使用 R 搜索medRxiv和bioRxiv
…
# Build your search
topic1  <- c("dementia","vascular","alzheimer's")  # Combined with Boolean OR
topic2  <- c("lipids","statins","cholesterol")     # Combined with Boolean OR
myquery <- list(topic1, topic2)                    # Combined with Boolean AND

# Run your search
results <- mx_search(data = preprint_data,
                     query = myquery)

# Let's have a look at the returned records
results

## # A tibble: 52 x 14
##       ID title abstract authors date       category doi   version
##    <dbl> <chr> <chr>    <chr>   <date>     <chr>    <chr>   <dbl>
##  1   184 Exce… "Object… De Lim… 2019-07-25 Cardiov… 10.1…       1
##  2   281 Peri… "Introd… Newton… 2019-08-14 Addicti… 10.1…       1
##  3   284 A co… "Object… Moriar… 2019-08-15 Cardiov… 10.1…       1
##  4   341 Apol… "Backgr… Richar… 2019-08-29 Cardiov… 10.1…       1
##  5   307 Comp… "Owing … Batty,… 2019-08-17 Epidemi… 10.1…       1
##  6   473 Self… "Backgr… Grover… 2019-09-23 Cardiov… 10.1…       1
##  7   644 Tren… "Object… Curtis… 2019-10-18 Cardiov… 10.1…       1
##  8   979 Does… "OBJECT… Harber… 2019-11-29 Endocri… 10.1…       1
##  9  1086 Asse… "Backgr… Finner… 2019-12-14 Cardiov… 10.1…       1
## 10  1334 Idea… "BACKGR… Mckenz… 2020-01-16 Epidemi… 10.1…       1
## # … with 42 more rows, and 6 more variables: author_corresponding <chr>,
## #   author_corresponding_institution <chr>, link_page <chr>, link_pdf <chr>,
## #   license <chr>, published <chr>
…
